<?xml version="1.0" encoding="UTF-8"?>
<svg xmlns="http://www.w3.org/2000/svg" xmlns:xlink="http://www.w3.org/1999/xlink" width="286.881pt" height="147.998pt" viewBox="0 0 286.881 147.998" version="1.1">
<defs>
<g>
<symbol overflow="visible" id="glyph0-0">
<path style="stroke:none;" d="M 3.484375 -1.859375 L 3.484375 -2.03125 C 3.484375 -3.21875 5.25 -4.0625 5.25 -5.671875 C 5.25 -6.8125 4.296875 -7.296875 3.234375 -7.296875 C 2.125 -7.296875 1.375 -6.671875 1.375 -5.796875 C 1.375 -5.28125 1.578125 -5.03125 1.9375 -5.03125 C 2.1875 -5.03125 2.421875 -5.171875 2.421875 -5.5 C 2.421875 -5.921875 2.1875 -5.9375 2.1875 -6.296875 C 2.1875 -6.625 2.484375 -6.875 3.125 -6.875 C 3.828125 -6.875 4.265625 -6.5 4.265625 -5.640625 C 4.265625 -3.953125 3.046875 -3.5625 3.046875 -2.140625 L 3.046875 -1.859375 Z M 3.90625 -0.53125 C 3.90625 -0.859375 3.671875 -1.171875 3.296875 -1.171875 C 2.890625 -1.171875 2.65625 -0.875 2.65625 -0.53125 C 2.65625 -0.15625 2.859375 0.09375 3.28125 0.09375 C 3.671875 0.09375 3.90625 -0.171875 3.90625 -0.53125 Z M 6.484375 1.84375 L 6.484375 -8.5625 L 0.109375 -8.5625 L 0.109375 1.84375 Z M 5.921875 1.265625 L 0.671875 1.265625 L 0.671875 -8 L 5.921875 -8 Z M 5.921875 1.265625 "/>
</symbol>
<symbol overflow="visible" id="glyph0-1">
<path style="stroke:none;" d="M 1.453125 -1.421875 C 1.453125 -0.484375 1.359375 -0.328125 0.375 -0.328125 L 0.375 0 L 3.515625 0 L 3.515625 -0.328125 C 2.546875 -0.328125 2.4375 -0.484375 2.4375 -1.421875 L 2.4375 -5.71875 C 2.4375 -6.578125 2.46875 -6.84375 3.515625 -6.84375 L 3.515625 -7.171875 L 0.375 -7.171875 L 0.375 -6.84375 C 1.40625 -6.84375 1.453125 -6.578125 1.453125 -5.71875 Z M 1.453125 -1.421875 "/>
</symbol>
<symbol overflow="visible" id="glyph0-2">
<path style="stroke:none;" d="M 0.421875 -1.78125 L 0.453125 0.09375 L 0.6875 0.09375 L 0.921875 -0.15625 L 0.9375 -0.15625 C 1.21875 -0.046875 1.546875 0.125 2.1875 0.125 C 3.15625 0.125 4.015625 -0.265625 4.015625 -1.296875 C 4.015625 -2.109375 3.484375 -2.515625 2.484375 -3.03125 C 1.578125 -3.5 1.203125 -3.78125 1.203125 -4.203125 C 1.203125 -4.6875 1.59375 -4.921875 2.09375 -4.921875 C 2.765625 -4.921875 3.15625 -4.609375 3.40625 -3.5625 L 3.703125 -3.5625 L 3.671875 -5.234375 L 3.453125 -5.234375 L 3.265625 -5 L 3.25 -5 C 2.984375 -5.140625 2.65625 -5.296875 2.109375 -5.296875 C 1.171875 -5.296875 0.4375 -4.8125 0.4375 -3.921875 C 0.4375 -3.109375 0.890625 -2.71875 1.875 -2.21875 C 2.890625 -1.71875 3.09375 -1.515625 3.09375 -1 C 3.09375 -0.484375 2.703125 -0.28125 2.15625 -0.28125 C 1.359375 -0.28125 0.9375 -0.671875 0.703125 -1.78125 Z M 0.421875 -1.78125 "/>
</symbol>
<symbol overflow="visible" id="glyph0-3">
<path style="stroke:none;" d="M 2.8125 -5.296875 C 1.34375 -5.296875 0.375 -4.21875 0.375 -2.640625 C 0.375 -0.875 1.28125 0.109375 2.8125 0.109375 C 4.234375 0.109375 5.234375 -0.84375 5.234375 -2.6875 C 5.234375 -4.296875 4.3125 -5.296875 2.8125 -5.296875 Z M 2.765625 -4.875 C 3.734375 -4.875 4.234375 -3.96875 4.234375 -2.625 C 4.234375 -0.84375 3.75 -0.328125 2.859375 -0.328125 C 1.921875 -0.3125 1.390625 -1.046875 1.390625 -2.78125 C 1.390625 -4.171875 1.9375 -4.875 2.765625 -4.875 Z M 2.765625 -4.875 "/>
</symbol>
<symbol overflow="visible" id="glyph0-4">
<path style="stroke:none;" d="M 3.203125 -0.984375 C 2.921875 -0.671875 2.78125 -0.53125 2.4375 -0.53125 C 2 -0.53125 1.90625 -0.796875 1.90625 -1.578125 L 1.90625 -4.703125 L 3.140625 -4.703125 L 3.140625 -5.15625 L 1.90625 -5.15625 L 1.921875 -6.65625 L 1.640625 -6.65625 C 1.25 -5.71875 0.921875 -5.265625 0.40625 -4.953125 L 0.40625 -4.703125 L 1 -4.703125 L 1 -1.265625 C 1 -0.28125 1.3125 0.109375 2.046875 0.109375 C 2.75 0.109375 2.984375 -0.21875 3.40625 -0.8125 Z M 3.203125 -0.984375 "/>
</symbol>
<symbol overflow="visible" id="glyph0-5">
<path style="stroke:none;" d="M 2 -3.921875 C 2.53125 -4.40625 2.921875 -4.59375 3.34375 -4.59375 C 4.234375 -4.59375 4.359375 -3.84375 4.359375 -2.9375 L 4.359375 -1.0625 C 4.359375 -0.53125 4.3125 -0.3125 3.5625 -0.3125 L 3.5625 0 L 6.0625 0 L 6.0625 -0.3125 C 5.375 -0.3125 5.25 -0.53125 5.25 -1.09375 L 5.25 -3.265625 C 5.25 -4.171875 5.046875 -5.296875 3.796875 -5.296875 C 3.21875 -5.296875 2.71875 -5.03125 2.03125 -4.390625 L 2 -4.390625 L 2 -7.703125 L 1.703125 -7.703125 L 0.234375 -7.3125 L 0.234375 -7.015625 C 0.234375 -7.015625 0.375 -7.03125 0.5625 -7.03125 C 0.84375 -7.03125 1.09375 -6.984375 1.09375 -6.59375 L 1.09375 -1.015625 C 1.09375 -0.40625 0.890625 -0.3125 0.328125 -0.3125 L 0.328125 0 L 2.796875 0 L 2.796875 -0.3125 C 2.046875 -0.3125 2 -0.484375 2 -1.0625 Z M 2 -3.921875 "/>
</symbol>
<symbol overflow="visible" id="glyph0-6">
<path style="stroke:none;" d="M 4.53125 -1.5625 C 4.171875 -1.09375 3.84375 -0.703125 2.953125 -0.703125 C 2.078125 -0.703125 1.25 -1.390625 1.25 -2.90625 L 4.703125 -2.90625 C 4.640625 -4.421875 3.859375 -5.296875 2.671875 -5.296875 C 1.390625 -5.296875 0.375 -4.421875 0.375 -2.59375 C 0.375 -0.84375 1.390625 0.109375 2.6875 0.109375 C 3.8125 0.109375 4.34375 -0.578125 4.734375 -1.40625 Z M 1.25 -3.296875 C 1.328125 -4.3125 1.765625 -4.859375 2.515625 -4.859375 C 3.28125 -4.859375 3.640625 -4.109375 3.671875 -3.296875 Z M 1.25 -3.296875 "/>
</symbol>
<symbol overflow="visible" id="glyph0-7">
<path style="stroke:none;" d="M 2 -5.25 L 1.734375 -5.25 L 0.375 -4.921875 L 0.375 -4.625 C 0.375 -4.625 0.5 -4.640625 0.71875 -4.640625 C 1.109375 -4.640625 1.109375 -4.453125 1.109375 -4.0625 L 1.109375 -1.0625 C 1.109375 -0.453125 1.03125 -0.3125 0.3125 -0.3125 L 0.3125 0 L 3.046875 0 L 3.046875 -0.3125 C 2.21875 -0.3125 2.015625 -0.421875 2.015625 -1.109375 L 2.015625 -3.59375 C 2.28125 -4.03125 2.625 -4.5 2.875 -4.5 C 3.015625 -4.5 3.234375 -4.125 3.59375 -4.125 C 3.828125 -4.125 4.0625 -4.296875 4.0625 -4.71875 C 4.0625 -5.078125 3.859375 -5.328125 3.4375 -5.328125 C 2.90625 -5.328125 2.578125 -4.9375 2.03125 -4.140625 L 2 -4.140625 Z M 2 -5.25 "/>
</symbol>
<symbol overflow="visible" id="glyph0-8">
<path style="stroke:none;" d="M 2.015625 -3.890625 C 2.328125 -4.1875 2.8125 -4.59375 3.375 -4.59375 C 3.875 -4.59375 4.25 -4.359375 4.25 -3.421875 L 4.25 -1.265625 C 4.25 -0.5 4.1875 -0.3125 3.40625 -0.3125 L 3.40625 0 L 6 0 L 6 -0.3125 C 5.21875 -0.3125 5.15625 -0.515625 5.15625 -1.265625 L 5.15625 -3.921875 C 5.515625 -4.21875 5.96875 -4.59375 6.40625 -4.59375 C 6.921875 -4.59375 7.34375 -4.359375 7.34375 -3.359375 L 7.34375 -1.265625 C 7.34375 -0.59375 7.3125 -0.3125 6.578125 -0.3125 L 6.578125 0 L 9.046875 0 L 9.046875 -0.3125 C 8.28125 -0.3125 8.25 -0.578125 8.25 -1.265625 L 8.25 -3.484375 C 8.25 -4.8125 7.703125 -5.296875 6.84375 -5.296875 C 6.265625 -5.296875 5.71875 -4.96875 5.109375 -4.390625 L 5.078125 -4.390625 C 4.859375 -4.90625 4.484375 -5.296875 3.859375 -5.296875 C 3.125 -5.296875 2.625 -4.890625 2.03125 -4.375 L 1.984375 -4.375 L 1.984375 -5.25 L 1.71875 -5.25 L 0.359375 -4.9375 L 0.359375 -4.625 C 0.359375 -4.625 0.484375 -4.640625 0.65625 -4.640625 C 0.953125 -4.640625 1.109375 -4.546875 1.109375 -4.15625 L 1.109375 -1.09375 C 1.109375 -0.453125 1.03125 -0.3125 0.34375 -0.3125 L 0.34375 0 L 2.828125 0 L 2.828125 -0.3125 C 2.15625 -0.3125 2.015625 -0.453125 2.015625 -1.0625 Z M 2.015625 -3.890625 "/>
</symbol>
<symbol overflow="visible" id="glyph0-9">
<path style="stroke:none;" d="M 2.109375 -4.609375 C 2.109375 -4.96875 1.875 -5.296875 1.46875 -5.296875 C 1.0625 -5.296875 0.8125 -4.984375 0.8125 -4.625 C 0.8125 -4.25 1.03125 -3.984375 1.453125 -3.984375 C 1.875 -3.984375 2.109375 -4.28125 2.109375 -4.609375 Z M 2.109375 -0.53125 C 2.109375 -0.890625 1.875 -1.203125 1.46875 -1.203125 C 1.0625 -1.203125 0.8125 -0.90625 0.8125 -0.546875 C 0.8125 -0.171875 1.03125 0.09375 1.453125 0.09375 C 1.875 0.09375 2.109375 -0.203125 2.109375 -0.53125 Z M 2.109375 -0.53125 "/>
</symbol>
<symbol overflow="visible" id="glyph0-10">
<path style="stroke:none;" d="M 6.1875 -2.125 L 5.84375 -2.125 C 5.421875 -0.859375 5.25 -0.453125 3.78125 -0.453125 L 3.28125 -0.453125 C 2.640625 -0.453125 2.453125 -0.5625 2.453125 -1.03125 L 2.453125 -5.765625 C 2.453125 -6.625 2.640625 -6.84375 3.515625 -6.84375 L 3.515625 -7.171875 L 0.453125 -7.171875 L 0.453125 -6.84375 C 1.328125 -6.84375 1.453125 -6.625 1.453125 -5.78125 L 1.453125 -1.34375 C 1.453125 -0.484375 1.328125 -0.328125 0.453125 -0.328125 L 0.453125 0 L 5.875 0 Z M 6.1875 -2.125 "/>
</symbol>
<symbol overflow="visible" id="glyph0-11">
<path style="stroke:none;" d="M 1.578125 -7.5625 C 1.203125 -7.5625 0.953125 -7.28125 0.953125 -6.953125 C 0.953125 -6.609375 1.203125 -6.328125 1.578125 -6.328125 C 1.96875 -6.328125 2.203125 -6.609375 2.203125 -6.953125 C 2.203125 -7.28125 1.96875 -7.5625 1.578125 -7.5625 Z M 2.796875 -0.3125 C 2.078125 -0.3125 2.015625 -0.46875 2.015625 -1.09375 L 2.015625 -5.25 L 1.734375 -5.25 L 0.359375 -4.953125 L 0.359375 -4.640625 C 0.359375 -4.640625 0.484375 -4.65625 0.625 -4.65625 C 0.953125 -4.65625 1.109375 -4.609375 1.109375 -4.140625 L 1.109375 -1.09375 C 1.109375 -0.484375 1.078125 -0.3125 0.34375 -0.3125 L 0.34375 0 L 2.796875 0 Z M 2.796875 -0.3125 "/>
</symbol>
<symbol overflow="visible" id="glyph0-12">
<path style="stroke:none;" d="M 5.25 -3.34375 C 5.25 -4.609375 4.78125 -5.296875 3.78125 -5.296875 C 3.09375 -5.296875 2.625 -4.890625 2.03125 -4.375 L 1.984375 -4.375 L 2 -5.25 L 1.75 -5.25 L 0.359375 -4.9375 L 0.359375 -4.625 C 0.359375 -4.625 0.46875 -4.640625 0.65625 -4.640625 C 0.953125 -4.640625 1.109375 -4.5625 1.109375 -4.171875 L 1.109375 -1.09375 C 1.109375 -0.484375 1.078125 -0.3125 0.34375 -0.3125 L 0.34375 0 L 2.84375 0 L 2.84375 -0.3125 C 2.0625 -0.3125 2.015625 -0.484375 2.015625 -1.09375 L 2.015625 -3.90625 C 2.34375 -4.203125 2.75 -4.59375 3.34375 -4.59375 C 3.828125 -4.59375 4.34375 -4.390625 4.34375 -3.078125 L 4.34375 -1.09375 C 4.34375 -0.484375 4.3125 -0.3125 3.53125 -0.3125 L 3.53125 0 L 6.046875 0 L 6.046875 -0.3125 C 5.328125 -0.3125 5.25 -0.484375 5.25 -1.09375 Z M 5.25 -3.34375 "/>
</symbol>
<symbol overflow="visible" id="glyph0-13">
<path style="stroke:none;" d="M 3.359375 -0.671875 C 3.421875 -0.203125 3.53125 0.046875 4.015625 0.046875 C 4.5625 0.046875 4.828125 -0.171875 5.1875 -0.703125 L 5.03125 -0.875 C 4.875 -0.703125 4.71875 -0.59375 4.515625 -0.59375 C 4.28125 -0.59375 4.1875 -0.6875 4.1875 -1.140625 L 4.1875 -3.609375 C 4.1875 -4.75 3.734375 -5.296875 2.546875 -5.296875 C 1.359375 -5.296875 0.625 -4.703125 0.625 -4.09375 C 0.625 -3.734375 0.875 -3.5625 1.09375 -3.5625 C 1.390625 -3.5625 1.578125 -3.734375 1.578125 -4.0625 C 1.578125 -4.71875 1.671875 -4.953125 2.296875 -4.953125 C 2.953125 -4.953125 3.28125 -4.59375 3.28125 -3.640625 L 3.28125 -3.15625 C 2.34375 -2.875 0.421875 -2.578125 0.421875 -1.140625 C 0.421875 -0.453125 0.875 0.078125 1.71875 0.078125 C 2.40625 0.078125 2.796875 -0.234375 3.3125 -0.671875 Z M 3.28125 -1 C 2.90625 -0.703125 2.515625 -0.53125 2.15625 -0.53125 C 1.6875 -0.53125 1.375 -0.859375 1.375 -1.40625 C 1.375 -2.25 2.296875 -2.546875 3.28125 -2.796875 Z M 3.28125 -1 "/>
</symbol>
<symbol overflow="visible" id="glyph0-14">
<path style="stroke:none;" d="M 1.390625 -2 C 0.890625 -1.609375 0.5 -1.15625 0.5 -0.765625 C 0.5 -0.453125 0.734375 -0.15625 1.109375 0.015625 L 1.109375 0.0625 C 0.53125 0.625 0.234375 1 0.234375 1.359375 C 0.234375 1.96875 0.65625 2.5625 2.078125 2.5625 C 3.453125 2.5625 5.078125 2.0625 5.078125 0.59375 C 5.078125 -0.65625 4.03125 -0.703125 2.65625 -0.703125 C 1.640625 -0.703125 1.359375 -0.8125 1.359375 -1.140625 C 1.359375 -1.3125 1.53125 -1.71875 1.640625 -1.859375 C 1.9375 -1.765625 2.234375 -1.703125 2.578125 -1.703125 C 3.734375 -1.703125 4.515625 -2.34375 4.515625 -3.359375 C 4.515625 -3.90625 4.28125 -4.265625 4.125 -4.484375 L 4.125 -4.53125 L 5.140625 -4.5 L 5.140625 -5.09375 L 3.734375 -5.015625 C 3.734375 -5.015625 3.25 -5.296875 2.53125 -5.296875 C 1.375 -5.296875 0.5625 -4.609375 0.5625 -3.515625 C 0.5625 -2.796875 0.875 -2.328125 1.390625 -2.03125 Z M 2.453125 -4.890625 C 3.15625 -4.890625 3.546875 -4.3125 3.546875 -3.421875 C 3.546875 -2.390625 3.140625 -2.078125 2.59375 -2.078125 C 1.890625 -2.078125 1.515625 -2.625 1.515625 -3.5625 C 1.515625 -4.46875 1.890625 -4.890625 2.453125 -4.890625 Z M 1.390625 0.109375 C 1.53125 0.109375 1.75 0.125 2.625 0.125 C 3.34375 0.140625 4.515625 0.125 4.515625 0.90625 C 4.515625 1.375 4 1.9375 2.71875 1.9375 C 1.609375 1.9375 1.078125 1.625 1.078125 1 C 1.078125 0.765625 1.15625 0.515625 1.390625 0.109375 Z M 1.390625 0.109375 "/>
</symbol>
<symbol overflow="visible" id="glyph0-15">
<path style="stroke:none;" d="M 0.53125 -7.171875 L 0.53125 -6.84375 C 1.21875 -6.84375 1.453125 -6.71875 1.453125 -6.078125 L 1.453125 -1.390625 C 1.453125 -0.46875 1.328125 -0.328125 0.484375 -0.328125 L 0.484375 0 L 3.5625 0 L 3.5625 -0.328125 C 2.671875 -0.328125 2.453125 -0.453125 2.453125 -1.34375 L 2.453125 -3.203125 C 2.578125 -3.15625 2.859375 -3.125 3.078125 -3.125 C 4.5 -3.125 5.9375 -3.65625 5.9375 -5.359375 C 5.9375 -6.8125 4.640625 -7.171875 3.234375 -7.171875 Z M 2.453125 -6.703125 C 2.6875 -6.71875 2.890625 -6.734375 3.109375 -6.734375 C 4.28125 -6.734375 4.859375 -6.1875 4.859375 -5.203125 C 4.859375 -3.9375 4.21875 -3.5625 3.046875 -3.5625 C 2.828125 -3.5625 2.578125 -3.59375 2.453125 -3.609375 Z M 2.453125 -6.703125 "/>
</symbol>
<symbol overflow="visible" id="glyph0-16">
<path style="stroke:none;" d="M 5.890625 -0.484375 L 5.78125 -0.484375 C 5.25 -0.484375 5.125 -0.5625 5.125 -1.203125 L 5.125 -5.21875 L 4.859375 -5.21875 L 3.34375 -5.046875 L 3.34375 -4.75 C 4.03125 -4.75 4.21875 -4.6875 4.21875 -4.109375 L 4.21875 -1.25 C 3.78125 -0.859375 3.4375 -0.59375 2.875 -0.59375 C 2.3125 -0.59375 1.890625 -0.921875 1.890625 -2.03125 L 1.890625 -5.21875 L 1.65625 -5.21875 L 0.25 -5.046875 L 0.25 -4.75 C 0.84375 -4.734375 1 -4.6875 1 -4.09375 L 1 -1.890625 C 1 -0.40625 1.515625 0.109375 2.421875 0.109375 C 3.125 0.109375 3.625 -0.21875 4.203125 -0.78125 L 4.265625 -0.78125 L 4.265625 0.046875 L 4.5 0.046875 L 5.890625 -0.203125 Z M 5.890625 -0.484375 "/>
</symbol>
<symbol overflow="visible" id="glyph1-0">
<path style="stroke:none;" d="M 3.484375 -1.859375 L 3.484375 -2.03125 C 3.484375 -3.21875 5.25 -4.0625 5.25 -5.671875 C 5.25 -6.8125 4.296875 -7.296875 3.234375 -7.296875 C 2.125 -7.296875 1.375 -6.671875 1.375 -5.796875 C 1.375 -5.28125 1.578125 -5.03125 1.9375 -5.03125 C 2.1875 -5.03125 2.421875 -5.171875 2.421875 -5.5 C 2.421875 -5.921875 2.1875 -5.9375 2.1875 -6.296875 C 2.1875 -6.625 2.484375 -6.875 3.125 -6.875 C 3.828125 -6.875 4.265625 -6.5 4.265625 -5.640625 C 4.265625 -3.953125 3.046875 -3.5625 3.046875 -2.140625 L 3.046875 -1.859375 Z M 3.90625 -0.53125 C 3.90625 -0.859375 3.671875 -1.171875 3.296875 -1.171875 C 2.890625 -1.171875 2.65625 -0.875 2.65625 -0.53125 C 2.65625 -0.15625 2.859375 0.09375 3.28125 0.09375 C 3.671875 0.09375 3.90625 -0.171875 3.90625 -0.53125 Z M 6.484375 1.84375 L 6.484375 -8.5625 L 0.109375 -8.5625 L 0.109375 1.84375 Z M 5.921875 1.265625 L 0.671875 1.265625 L 0.671875 -8 L 5.921875 -8 Z M 5.921875 1.265625 "/>
</symbol>
<symbol overflow="visible" id="glyph1-1">
<path style="stroke:none;" d="M 4.390625 -3.625 C 4.296875 -4.234375 4.09375 -5.21875 3.03125 -5.21875 C 1.53125 -5.21875 0.453125 -3.875 0.453125 -1.859375 C 0.453125 -0.609375 0.8125 0.15625 1.71875 0.15625 C 2.515625 0.15625 3.234375 -0.703125 3.875 -1.734375 L 3.96875 -1.734375 C 3.9375 -1.375 3.875 -1.0625 3.875 -0.8125 C 3.875 -0.265625 4.0625 0.125 4.578125 0.125 C 5.46875 0.125 5.875 -0.671875 6.046875 -0.953125 L 5.875 -1.125 C 5.65625 -0.890625 5.453125 -0.703125 5.125 -0.703125 C 4.515625 -0.703125 4.546875 -1.859375 4.546875 -2.65625 C 4.546875 -2.703125 5.078125 -3.4375 5.90625 -4.59375 C 5.984375 -4.703125 6.15625 -4.890625 6.234375 -4.984375 L 6.21875 -5.140625 L 5.3125 -5.125 C 5.109375 -4.84375 4.71875 -4.234375 4.453125 -3.625 Z M 1.953125 -0.8125 C 1.453125 -0.8125 0.953125 -1.171875 0.953125 -2.109375 C 0.953125 -3.578125 1.796875 -4.3125 2.984375 -4.3125 C 3.671875 -4.3125 4.03125 -4.015625 4.03125 -3.34375 C 4.03125 -3.15625 4.03125 -3.03125 4.015625 -2.953125 C 3.921875 -2.203125 3.046875 -0.8125 1.953125 -0.8125 Z M 1.953125 -0.8125 "/>
</symbol>
<symbol overflow="visible" id="glyph1-2">
<path style="stroke:none;" d="M 1.28125 -7.171875 L 1.21875 -6.84375 C 1.953125 -6.84375 2.1875 -6.71875 2.0625 -6.078125 L 1.09375 -1.390625 C 0.921875 -0.46875 0.75 -0.328125 -0.078125 -0.328125 L -0.140625 0 L 2.890625 0 L 2.953125 -0.328125 C 2.078125 -0.328125 1.875 -0.453125 2.0625 -1.34375 L 2.4375 -3.203125 C 2.578125 -3.15625 2.875 -3.125 3.09375 -3.125 C 4.53125 -3.125 6.296875 -3.78125 6.296875 -5.65625 C 6.296875 -6.8125 5.28125 -7.171875 3.9375 -7.171875 Z M 3.15625 -6.703125 C 3.390625 -6.71875 3.515625 -6.734375 3.734375 -6.734375 C 4.84375 -6.734375 5.234375 -6.25 5.234375 -5.53125 C 5.234375 -4.140625 4.3125 -3.5625 3.046875 -3.5625 C 2.796875 -3.5625 2.65625 -3.59375 2.53125 -3.609375 Z M 3.15625 -6.703125 "/>
</symbol>
<symbol overflow="visible" id="glyph1-3">
<path style="stroke:none;" d="M 7.171875 -2.453125 L 7.171875 -3.203125 L 4.3125 -3.203125 L 4.3125 -6.078125 L 3.53125 -6.078125 L 3.53125 -3.203125 L 0.671875 -3.203125 L 0.671875 -2.453125 L 3.53125 -2.453125 L 3.53125 0.4375 L 4.3125 0.4375 L 4.3125 -2.453125 Z M 7.171875 -2.453125 "/>
</symbol>
<symbol overflow="visible" id="glyph1-4">
<path style="stroke:none;" d="M 7.171875 -3.5625 L 7.171875 -4.3125 L 0.671875 -4.3125 L 0.671875 -3.5625 Z M 7.171875 -1.34375 L 7.171875 -2.078125 L 0.671875 -2.078125 L 0.671875 -1.34375 Z M 7.171875 -1.34375 "/>
</symbol>
<symbol overflow="visible" id="glyph1-5">
<path style="stroke:none;" d="M 1.140625 -1.421875 C 0.9375 -0.484375 0.828125 -0.328125 -0.078125 -0.328125 L -0.140625 0 L 2.90625 0 L 2.96875 -0.328125 C 2 -0.328125 1.9375 -0.484375 2.125 -1.421875 L 2.515625 -3.375 L 2.65625 -3.375 L 3.34375 -2.546875 C 4.265625 -1.421875 4.53125 -1 4.53125 -0.640625 C 4.53125 -0.390625 4.328125 -0.328125 4 -0.328125 L 3.859375 -0.328125 L 3.8125 0 L 6.953125 0 L 7.015625 -0.328125 C 6.484375 -0.328125 6.140625 -0.453125 5.859375 -0.796875 L 3.453125 -3.84375 L 6.265625 -6.125 C 6.921875 -6.65625 7.140625 -6.78125 7.765625 -6.84375 L 7.8125 -7.171875 L 5.25 -7.171875 L 5.1875 -6.84375 L 5.359375 -6.84375 C 5.609375 -6.84375 5.765625 -6.75 5.765625 -6.59375 C 5.765625 -6.265625 5.34375 -5.90625 4.71875 -5.40625 L 2.625 -3.6875 L 2.578125 -3.6875 L 3 -5.71875 C 3.171875 -6.578125 3.265625 -6.84375 4.3125 -6.84375 L 4.359375 -7.171875 L 1.28125 -7.171875 L 1.21875 -6.84375 C 2.1875 -6.84375 2.203125 -6.578125 2.03125 -5.71875 Z M 1.140625 -1.421875 "/>
</symbol>
<symbol overflow="visible" id="glyph2-0">
<path style="stroke:none;" d="M 2.4375 -1.296875 L 2.4375 -1.421875 C 2.4375 -2.25 3.671875 -2.84375 3.671875 -3.96875 C 3.671875 -4.765625 3.015625 -5.109375 2.265625 -5.109375 C 1.484375 -5.109375 0.96875 -4.671875 0.96875 -4.0625 C 0.96875 -3.703125 1.109375 -3.515625 1.359375 -3.515625 C 1.53125 -3.515625 1.703125 -3.625 1.703125 -3.859375 C 1.703125 -4.15625 1.53125 -4.15625 1.53125 -4.40625 C 1.53125 -4.640625 1.734375 -4.828125 2.1875 -4.828125 C 2.6875 -4.828125 2.984375 -4.546875 2.984375 -3.953125 C 2.984375 -2.78125 2.140625 -2.484375 2.140625 -1.5 L 2.140625 -1.296875 Z M 2.734375 -0.359375 C 2.734375 -0.609375 2.578125 -0.8125 2.3125 -0.8125 C 2.03125 -0.8125 1.859375 -0.609375 1.859375 -0.359375 C 1.859375 -0.109375 2 0.0625 2.296875 0.0625 C 2.578125 0.0625 2.734375 -0.125 2.734375 -0.359375 Z M 4.546875 1.296875 L 4.546875 -6 L 0.078125 -6 L 0.078125 1.296875 Z M 4.15625 0.890625 L 0.46875 0.890625 L 0.46875 -5.609375 L 4.15625 -5.609375 Z M 4.15625 0.890625 "/>
</symbol>
<symbol overflow="visible" id="glyph2-1">
<path style="stroke:none;" d="M 4.25 -2.625 C 4.25 -4.328125 3.421875 -5.265625 2.3125 -5.265625 C 1.21875 -5.265625 0.375 -4.328125 0.375 -2.625 C 0.375 -1.140625 1 0.109375 2.3125 0.109375 C 3.640625 0.109375 4.25 -1.234375 4.25 -2.625 Z M 3.359375 -2.546875 C 3.359375 -1.046875 2.96875 -0.28125 2.3125 -0.28125 C 1.640625 -0.28125 1.265625 -1.015625 1.265625 -2.59375 C 1.265625 -4.171875 1.625 -4.890625 2.3125 -4.890625 C 3.015625 -4.890625 3.359375 -4.1875 3.359375 -2.546875 Z M 3.359375 -2.546875 "/>
</symbol>
<symbol overflow="visible" id="glyph3-0">
<path style="stroke:none;" d="M 2.4375 -1.296875 L 2.4375 -1.421875 C 2.4375 -2.25 3.671875 -2.84375 3.671875 -3.96875 C 3.671875 -4.765625 3.015625 -5.109375 2.265625 -5.109375 C 1.484375 -5.109375 0.96875 -4.671875 0.96875 -4.0625 C 0.96875 -3.703125 1.109375 -3.515625 1.359375 -3.515625 C 1.53125 -3.515625 1.703125 -3.625 1.703125 -3.859375 C 1.703125 -4.15625 1.53125 -4.15625 1.53125 -4.40625 C 1.53125 -4.640625 1.734375 -4.828125 2.1875 -4.828125 C 2.6875 -4.828125 2.984375 -4.546875 2.984375 -3.953125 C 2.984375 -2.78125 2.140625 -2.484375 2.140625 -1.5 L 2.140625 -1.296875 Z M 2.734375 -0.359375 C 2.734375 -0.609375 2.578125 -0.8125 2.3125 -0.8125 C 2.03125 -0.8125 1.859375 -0.609375 1.859375 -0.359375 C 1.859375 -0.109375 2 0.0625 2.296875 0.0625 C 2.578125 0.0625 2.734375 -0.125 2.734375 -0.359375 Z M 4.546875 1.296875 L 4.546875 -6 L 0.078125 -6 L 0.078125 1.296875 Z M 4.15625 0.890625 L 0.46875 0.890625 L 0.46875 -5.609375 L 4.15625 -5.609375 Z M 4.15625 0.890625 "/>
</symbol>
<symbol overflow="visible" id="glyph3-1">
<path style="stroke:none;" d="M 1.71875 -4.015625 C 1.71875 -4.609375 1.734375 -4.796875 2.46875 -4.796875 L 2.46875 -5.015625 L 0.28125 -5.015625 L 0.28125 -4.796875 C 0.984375 -4.796875 1.015625 -4.609375 1.015625 -4.015625 L 1.015625 -1 C 1.015625 -0.328125 0.96875 -0.234375 0.28125 -0.234375 L 0.28125 0 L 2.46875 0 L 2.46875 -0.234375 C 1.78125 -0.234375 1.71875 -0.328125 1.71875 -1 L 1.71875 -2.4375 L 4.21875 -2.4375 L 4.21875 -1 C 4.21875 -0.34375 4.171875 -0.234375 3.484375 -0.234375 L 3.484375 0 L 5.671875 0 L 5.671875 -0.234375 C 4.96875 -0.234375 4.921875 -0.34375 4.921875 -1 L 4.921875 -4.015625 C 4.921875 -4.609375 4.9375 -4.796875 5.671875 -4.796875 L 5.671875 -5.015625 L 3.484375 -5.015625 L 3.484375 -4.796875 C 4.1875 -4.796875 4.21875 -4.609375 4.21875 -4.015625 L 4.21875 -2.734375 L 1.71875 -2.734375 Z M 1.71875 -4.015625 "/>
</symbol>
<symbol overflow="visible" id="glyph4-0">
<path style="stroke:none;" d="M -1.859375 -3.484375 L -2.03125 -3.484375 C -3.21875 -3.484375 -4.0625 -5.25 -5.671875 -5.25 C -6.8125 -5.25 -7.296875 -4.296875 -7.296875 -3.234375 C -7.296875 -2.125 -6.671875 -1.375 -5.796875 -1.375 C -5.28125 -1.375 -5.03125 -1.578125 -5.03125 -1.9375 C -5.03125 -2.1875 -5.171875 -2.421875 -5.5 -2.421875 C -5.921875 -2.421875 -5.9375 -2.1875 -6.296875 -2.1875 C -6.625 -2.1875 -6.875 -2.484375 -6.875 -3.125 C -6.875 -3.828125 -6.5 -4.265625 -5.640625 -4.265625 C -3.953125 -4.265625 -3.5625 -3.046875 -2.140625 -3.046875 L -1.859375 -3.046875 Z M -0.53125 -3.90625 C -0.859375 -3.90625 -1.171875 -3.671875 -1.171875 -3.296875 C -1.171875 -2.890625 -0.875 -2.65625 -0.53125 -2.65625 C -0.15625 -2.65625 0.09375 -2.859375 0.09375 -3.28125 C 0.09375 -3.671875 -0.171875 -3.90625 -0.53125 -3.90625 Z M 1.84375 -6.484375 L -8.5625 -6.484375 L -8.5625 -0.109375 L 1.84375 -0.109375 Z M 1.265625 -5.921875 L 1.265625 -0.671875 L -8 -0.671875 L -8 -5.921875 Z M 1.265625 -5.921875 "/>
</symbol>
<symbol overflow="visible" id="glyph4-1">
<path style="stroke:none;" d="M -7.171875 -8 L -7.171875 -5.328125 L -6.84375 -5.328125 C -6.84375 -6.25 -6.59375 -6.359375 -5.4375 -6.359375 L -2.6875 -6.359375 C -1.1875 -6.359375 -0.5625 -5.765625 -0.5625 -4.34375 C -0.5625 -2.78125 -1.3125 -2.296875 -2.734375 -2.296875 L -5.828125 -2.296875 C -6.640625 -2.296875 -6.84375 -2.4375 -6.84375 -3.359375 L -7.171875 -3.359375 L -7.171875 -0.21875 L -6.84375 -0.21875 C -6.84375 -1.078125 -6.640625 -1.28125 -5.875 -1.28125 L -2.71875 -1.28125 C -0.703125 -1.28125 0.125 -2.140625 0.125 -4.0625 C 0.125 -6.125 -0.859375 -6.984375 -2.84375 -6.984375 L -5.46875 -6.984375 C -6.59375 -6.984375 -6.84375 -7.0625 -6.84375 -8 Z M -7.171875 -8 "/>
</symbol>
<symbol overflow="visible" id="glyph4-2">
<path style="stroke:none;" d="M -5.25 -1.921875 L -5.25 -1.640625 L -4.953125 -0.265625 L -4.640625 -0.265625 C -4.640625 -0.265625 -4.65625 -0.484375 -4.65625 -0.625 C -4.65625 -0.984375 -4.515625 -1.03125 -4.09375 -1.03125 L 1.296875 -1.03125 C 1.90625 -1.03125 2.09375 -0.921875 2.09375 -0.234375 L 2.40625 -0.234375 L 2.40625 -3 L 2.078125 -3 C 2.078125 -2.15625 1.9375 -1.9375 1.234375 -1.9375 L -0.203125 -1.9375 L -0.203125 -1.984375 C 0.015625 -2.296875 0.109375 -2.671875 0.109375 -3.09375 C 0.109375 -4.390625 -1 -5.46875 -2.84375 -5.46875 C -4.28125 -5.46875 -5.296875 -4.71875 -5.296875 -3.640625 C -5.296875 -3 -4.953125 -2.46875 -4.34375 -1.953125 L -4.34375 -1.921875 Z M -3.875 -1.9375 C -4.15625 -2.15625 -4.546875 -2.625 -4.546875 -3.203125 C -4.546875 -4 -3.921875 -4.484375 -2.546875 -4.484375 C -1.03125 -4.484375 -0.3125 -3.90625 -0.3125 -3.140625 C -0.3125 -2.53125 -0.8125 -2.15625 -1.03125 -1.9375 Z M -3.875 -1.9375 "/>
</symbol>
<symbol overflow="visible" id="glyph4-3">
<path style="stroke:none;" d="M -0.984375 -3.203125 C -0.671875 -2.921875 -0.53125 -2.78125 -0.53125 -2.4375 C -0.53125 -2 -0.796875 -1.90625 -1.578125 -1.90625 L -4.703125 -1.90625 L -4.703125 -3.140625 L -5.15625 -3.140625 L -5.15625 -1.90625 L -6.65625 -1.921875 L -6.65625 -1.640625 C -5.71875 -1.25 -5.265625 -0.921875 -4.953125 -0.40625 L -4.703125 -0.40625 L -4.703125 -1 L -1.265625 -1 C -0.28125 -1 0.109375 -1.3125 0.109375 -2.046875 C 0.109375 -2.75 -0.21875 -2.984375 -0.8125 -3.40625 Z M -0.984375 -3.203125 "/>
</symbol>
<symbol overflow="visible" id="glyph4-4">
<path style="stroke:none;" d="M -0.671875 -3.359375 C -0.203125 -3.421875 0.046875 -3.53125 0.046875 -4.015625 C 0.046875 -4.5625 -0.171875 -4.828125 -0.703125 -5.1875 L -0.875 -5.03125 C -0.703125 -4.875 -0.59375 -4.71875 -0.59375 -4.515625 C -0.59375 -4.28125 -0.6875 -4.1875 -1.140625 -4.1875 L -3.609375 -4.1875 C -4.75 -4.1875 -5.296875 -3.734375 -5.296875 -2.546875 C -5.296875 -1.359375 -4.703125 -0.625 -4.09375 -0.625 C -3.734375 -0.625 -3.5625 -0.875 -3.5625 -1.09375 C -3.5625 -1.390625 -3.734375 -1.578125 -4.0625 -1.578125 C -4.71875 -1.578125 -4.953125 -1.671875 -4.953125 -2.296875 C -4.953125 -2.953125 -4.59375 -3.28125 -3.640625 -3.28125 L -3.15625 -3.28125 C -2.875 -2.34375 -2.578125 -0.421875 -1.140625 -0.421875 C -0.453125 -0.421875 0.078125 -0.875 0.078125 -1.71875 C 0.078125 -2.40625 -0.234375 -2.796875 -0.671875 -3.3125 Z M -1 -3.28125 C -0.703125 -2.90625 -0.53125 -2.515625 -0.53125 -2.15625 C -0.53125 -1.6875 -0.859375 -1.375 -1.40625 -1.375 C -2.25 -1.375 -2.546875 -2.296875 -2.796875 -3.28125 Z M -1 -3.28125 "/>
</symbol>
<symbol overflow="visible" id="glyph4-5">
<path style="stroke:none;" d="M 0 -5.875 L -0.3125 -5.875 C -0.3125 -5.421875 -0.34375 -5.25 -0.953125 -4.71875 L -3.109375 -2.796875 L -3.5625 -3.34375 C -4.640625 -4.578125 -4.828125 -4.78125 -4.828125 -5.484375 L -5.15625 -5.484375 L -5.15625 -3.125 L -4.828125 -3.125 C -4.828125 -3.546875 -4.78125 -3.671875 -4.640625 -3.671875 C -4.453125 -3.671875 -4.328125 -3.515625 -4.28125 -3.46875 L -2.890625 -2.0625 L -2.890625 -2 L -7.703125 -2 L -7.703125 -1.703125 L -7.3125 -0.28125 L -7.03125 -0.28125 C -7.03125 -0.28125 -7.046875 -0.5 -7.046875 -0.65625 C -7.046875 -1.015625 -6.953125 -1.09375 -6.484375 -1.09375 L -1.03125 -1.09375 C -0.4375 -1.09375 -0.3125 -0.984375 -0.3125 -0.328125 L 0 -0.328125 L 0 -2.796875 L -0.3125 -2.796875 C -0.3125 -2.109375 -0.4375 -2 -1 -2 L -2.65625 -2 L -2.65625 -2.0625 L -0.703125 -3.78125 C -0.65625 -3.828125 -0.546875 -3.890625 -0.453125 -3.890625 C -0.34375 -3.890625 -0.3125 -3.78125 -0.3125 -3.46875 L 0 -3.46875 Z M 0 -5.875 "/>
</symbol>
<symbol overflow="visible" id="glyph4-6">
<path style="stroke:none;" d="M -1.5625 -4.53125 C -1.09375 -4.171875 -0.703125 -3.84375 -0.703125 -2.953125 C -0.703125 -2.078125 -1.390625 -1.25 -2.90625 -1.25 L -2.90625 -4.703125 C -4.421875 -4.640625 -5.296875 -3.859375 -5.296875 -2.671875 C -5.296875 -1.390625 -4.421875 -0.375 -2.59375 -0.375 C -0.84375 -0.375 0.109375 -1.390625 0.109375 -2.6875 C 0.109375 -3.8125 -0.578125 -4.34375 -1.40625 -4.734375 Z M -3.296875 -1.25 C -4.3125 -1.328125 -4.859375 -1.765625 -4.859375 -2.515625 C -4.859375 -3.28125 -4.109375 -3.640625 -3.296875 -3.671875 Z M -3.296875 -1.25 "/>
</symbol>
</g>
<clipPath id="clip1">
  <path d="M 283 129 L 286.882812 129 L 286.882812 133 L 283 133 Z M 283 129 "/>
</clipPath>
<clipPath id="clip2">
  <path d="M 19.699219 14 L 286.683594 14 L 286.683594 131.113281 L 19.699219 131.113281 Z M 19.699219 14 "/>
</clipPath>
<clipPath id="clip3">
  <path d="M 19.699219 0.199219 L 70 0.199219 L 70 131.113281 L 19.699219 131.113281 Z M 19.699219 0.199219 "/>
</clipPath>
</defs>
<g id="surface1">
<path style="fill:none;stroke-width:0.3985;stroke-linecap:butt;stroke-linejoin:miter;stroke:rgb(0%,0%,0%);stroke-opacity:1;stroke-miterlimit:10;" d="M -2.615781 0.00071875 L 262.376406 0.00071875 " transform="matrix(1,0,0,-1,22.315,131.114)"/>
<g clip-path="url(#clip1)" clip-rule="nonzero">
<path style=" stroke:none;fill-rule:nonzero;fill:rgb(0%,0%,0%);fill-opacity:1;" d="M 286.683594 131.113281 L 283.496094 129.519531 L 284.691406 131.113281 L 283.496094 132.707031 "/>
</g>
<path style="fill:none;stroke-width:0.3985;stroke-linecap:butt;stroke-linejoin:miter;stroke:rgb(0%,0%,0%);stroke-opacity:1;stroke-miterlimit:10;" d="M -2.615781 0.00071875 L -2.615781 128.922594 " transform="matrix(1,0,0,-1,22.315,131.114)"/>
<path style=" stroke:none;fill-rule:nonzero;fill:rgb(0%,0%,0%);fill-opacity:1;" d="M 19.699219 0.199219 L 18.105469 3.386719 L 19.699219 2.191406 L 21.292969 3.386719 "/>
<g clip-path="url(#clip2)" clip-rule="nonzero">
<path style="fill:none;stroke-width:0.79701;stroke-linecap:butt;stroke-linejoin:miter;stroke:rgb(21.569824%,49.412537%,72.155762%);stroke-opacity:1;stroke-miterlimit:10;" d="M 0.00140625 0.00071875 C 0.00140625 0.00071875 9.454531 26.664781 13.087344 34.004625 C 16.720156 41.344469 22.544375 48.606188 26.173281 52.89525 C 29.806094 57.184313 35.630313 62.094469 39.263125 64.918688 C 42.895938 67.739 48.720156 71.239 52.349063 73.239 C 55.981875 75.242906 61.806094 77.848375 65.438906 79.344469 C 69.067813 80.836656 74.892031 82.852281 78.524844 84.012438 C 82.157656 85.168688 87.981875 86.77025 91.610781 87.696031 C 95.243594 88.621813 101.067813 89.922594 104.700625 90.6765 C 108.333438 91.434313 114.15375 92.512438 117.786563 93.141344 C 121.419375 93.77025 127.243594 94.680406 130.876406 95.211656 C 134.505313 95.742906 140.329531 96.52025 143.962344 96.977281 C 147.595156 97.430406 153.419375 98.102281 157.048281 98.496813 C 160.681094 98.891344 166.505313 99.473375 170.138125 99.821031 C 173.770938 100.164781 179.59125 100.6765 183.224063 100.981188 C 186.856875 101.285875 192.681094 101.742906 196.313906 102.012438 C 199.942813 102.281969 205.767031 102.688219 209.399844 102.930406 C 213.032656 103.172594 218.856875 103.539781 222.485781 103.758531 C 226.118594 103.973375 231.942813 104.305406 235.575625 104.500719 C 239.208438 104.699938 245.02875 104.996813 248.661563 105.1765 C 252.294375 105.356188 261.751406 105.789781 261.751406 105.789781 " transform="matrix(1,0,0,-1,22.315,131.114)"/>
</g>
<g style="fill:rgb(21.569824%,49.412537%,72.155762%);fill-opacity:1;">
  <use xlink:href="#glyph0-1" x="58.869" y="89.591"/>
  <use xlink:href="#glyph0-2" x="62.763545" y="89.591"/>
  <use xlink:href="#glyph0-3" x="67.072636" y="89.591"/>
  <use xlink:href="#glyph0-4" x="72.679908" y="89.591"/>
  <use xlink:href="#glyph0-5" x="76.116271" y="89.591"/>
  <use xlink:href="#glyph0-6" x="82.410816" y="89.591"/>
  <use xlink:href="#glyph0-7" x="87.472634" y="89.591"/>
  <use xlink:href="#glyph0-8" x="91.618088" y="89.591"/>
  <use xlink:href="#glyph0-9" x="100.912633" y="89.591"/>
</g>
<g style="fill:rgb(21.569824%,49.412537%,72.155762%);fill-opacity:1;">
  <use xlink:href="#glyph1-1" x="119.401" y="82.609"/>
</g>
<g style="fill:rgb(21.569824%,49.412537%,72.155762%);fill-opacity:1;">
  <use xlink:href="#glyph1-2" x="126.11009" y="82.609"/>
</g>
<path style="fill:none;stroke-width:0.742;stroke-linecap:butt;stroke-linejoin:miter;stroke:rgb(21.569824%,49.412537%,72.155762%);stroke-opacity:1;stroke-miterlimit:10;" d="M -0.00190625 -0.00034375 L 35.166063 -0.00034375 " transform="matrix(1,0,0,-1,108.373,86.777)"/>
<g style="fill:rgb(21.569824%,49.412537%,72.155762%);fill-opacity:1;">
  <use xlink:href="#glyph1-1" x="108.373" y="96.573"/>
</g>
<g style="fill:rgb(21.569824%,49.412537%,72.155762%);fill-opacity:1;">
  <use xlink:href="#glyph1-2" x="115.08209" y="96.573"/>
</g>
<g style="fill:rgb(21.569824%,49.412537%,72.155762%);fill-opacity:1;">
  <use xlink:href="#glyph1-3" x="124.180271" y="96.573"/>
</g>
<g style="fill:rgb(21.569824%,49.412537%,72.155762%);fill-opacity:1;">
  <use xlink:href="#glyph1-2" x="134.456634" y="96.573"/>
</g>
<g style="fill:rgb(21.569824%,49.412537%,72.155762%);fill-opacity:1;">
  <use xlink:href="#glyph2-1" x="138.476" y="98.864"/>
</g>
<g clip-path="url(#clip3)" clip-rule="nonzero">
<path style="fill:none;stroke-width:0.79701;stroke-linecap:butt;stroke-linejoin:miter;stroke:rgb(59.606934%,30.587769%,63.920593%);stroke-opacity:1;stroke-miterlimit:10;" d="M 0.00140625 0.00071875 L 35.989688 130.918688 " transform="matrix(1,0,0,-1,22.315,131.114)"/>
</g>
<g style="fill:rgb(59.606934%,30.587769%,63.920593%);fill-opacity:1;">
  <use xlink:href="#glyph0-10" x="58.869" y="16.241"/>
  <use xlink:href="#glyph0-11" x="65.250818" y="16.241"/>
  <use xlink:href="#glyph0-12" x="68.359908" y="16.241"/>
  <use xlink:href="#glyph0-6" x="74.643544" y="16.241"/>
  <use xlink:href="#glyph0-13" x="79.705362" y="16.241"/>
  <use xlink:href="#glyph0-7" x="84.941725" y="16.241"/>
</g>
<g style="fill:rgb(59.606934%,30.587769%,63.920593%);fill-opacity:1;">
  <use xlink:href="#glyph0-7" x="91.650815" y="16.241"/>
</g>
<g style="fill:rgb(59.606934%,30.587769%,63.920593%);fill-opacity:1;">
  <use xlink:href="#glyph0-6" x="95.687179" y="16.241"/>
  <use xlink:href="#glyph0-14" x="100.748997" y="16.241"/>
  <use xlink:href="#glyph0-11" x="106.028996" y="16.241"/>
  <use xlink:href="#glyph0-3" x="109.138087" y="16.241"/>
  <use xlink:href="#glyph0-12" x="114.745359" y="16.241"/>
  <use xlink:href="#glyph0-9" x="121.028995" y="16.241"/>
</g>
<g style="fill:rgb(59.606934%,30.587769%,63.920593%);fill-opacity:1;">
  <use xlink:href="#glyph1-1" x="129.838" y="9.26"/>
</g>
<path style="fill:none;stroke-width:0.742;stroke-linecap:butt;stroke-linejoin:miter;stroke:rgb(59.606934%,30.587769%,63.920593%);stroke-opacity:1;stroke-miterlimit:10;" d="M -0.00171875 0.00121875 L 9.080312 0.00121875 " transform="matrix(1,0,0,-1,128.49,13.427)"/>
<g style="fill:rgb(59.606934%,30.587769%,63.920593%);fill-opacity:1;">
  <use xlink:href="#glyph1-2" x="128.49" y="23.223"/>
</g>
<g style="fill:rgb(59.606934%,30.587769%,63.920593%);fill-opacity:1;">
  <use xlink:href="#glyph2-1" x="132.504" y="25.514"/>
</g>
<g style="fill:rgb(59.606934%,30.587769%,63.920593%);fill-opacity:1;">
  <use xlink:href="#glyph1-2" x="140.582" y="16.241"/>
</g>
<g style="fill:rgb(59.606934%,30.587769%,63.920593%);fill-opacity:1;">
  <use xlink:href="#glyph1-4" x="150.280181" y="16.241"/>
</g>
<g style="fill:rgb(59.606934%,30.587769%,63.920593%);fill-opacity:1;">
  <use xlink:href="#glyph1-5" x="161.167453" y="16.241"/>
</g>
<g style="fill:rgb(59.606934%,30.587769%,63.920593%);fill-opacity:1;">
  <use xlink:href="#glyph3-1" x="168.777" y="18.532"/>
</g>
<g style="fill:rgb(59.606934%,30.587769%,63.920593%);fill-opacity:1;">
  <use xlink:href="#glyph1-2" x="176.965" y="16.241"/>
</g>
<g style="fill:rgb(0%,0%,0%);fill-opacity:1;">
  <use xlink:href="#glyph0-15" x="129.086" y="144.242"/>
  <use xlink:href="#glyph0-7" x="135.293272" y="144.242"/>
</g>
<g style="fill:rgb(0%,0%,0%);fill-opacity:1;">
  <use xlink:href="#glyph0-6" x="139.329636" y="144.242"/>
  <use xlink:href="#glyph0-2" x="144.391453" y="144.242"/>
  <use xlink:href="#glyph0-2" x="148.700544" y="144.242"/>
  <use xlink:href="#glyph0-16" x="153.009634" y="144.242"/>
  <use xlink:href="#glyph0-7" x="159.227816" y="144.242"/>
</g>
<g style="fill:rgb(0%,0%,0%);fill-opacity:1;">
  <use xlink:href="#glyph0-6" x="163.264179" y="144.242"/>
</g>
<g style="fill:rgb(0%,0%,0%);fill-opacity:1;">
  <use xlink:href="#glyph1-2" x="170.89" y="144.242"/>
</g>
<g style="fill:rgb(0%,0%,0%);fill-opacity:1;">
  <use xlink:href="#glyph4-1" x="11.338" y="82.375"/>
  <use xlink:href="#glyph4-2" x="11.338" y="74.171364"/>
  <use xlink:href="#glyph4-3" x="11.338" y="68.313183"/>
  <use xlink:href="#glyph4-4" x="11.338" y="64.87682"/>
  <use xlink:href="#glyph4-5" x="11.338" y="59.640456"/>
</g>
<g style="fill:rgb(0%,0%,0%);fill-opacity:1;">
  <use xlink:href="#glyph4-6" x="11.338" y="54.000457"/>
</g>
</g>
</svg>
